^C:\USERS\LENOVO\DOWNLOADS\GROUP8\GROUP8\DLL\STDAFX.CPP
C:\USERS\LENOVO\DOWNLOADS\GROUP8\GROUP8\DLL\DEBUG\DLL.PCH
C:\USERS\LENOVO\DOWNLOADS\GROUP8\GROUP8\DLL\DEBUG\VC141.PDB
C:\USERS\LENOVO\DOWNLOADS\GROUP8\GROUP8\DLL\DEBUG\VC141.IDB
C:\USERS\LENOVO\DOWNLOADS\GROUP8\GROUP8\DLL\DEBUG\STDAFX.OBJ
^C:\USERS\LENOVO\DOWNLOADS\GROUP8\GROUP8\DLL\DLL.CPP
C:\USERS\LENOVO\DOWNLOADS\GROUP8\GROUP8\DLL\DEBUG\VC141.PDB
C:\USERS\LENOVO\DOWNLOADS\GROUP8\GROUP8\DLL\DEBUG\VC141.IDB
C:\USERS\LENOVO\DOWNLOADS\GROUP8\GROUP8\DLL\DEBUG\DLL.OBJ
^C:\USERS\LENOVO\DOWNLOADS\GROUP8\GROUP8\DLL\DLLMAIN.CPP
C:\USERS\LENOVO\DOWNLOADS\GROUP8\GROUP8\DLL\DEBUG\VC141.PDB
C:\USERS\LENOVO\DOWNLOADS\GROUP8\GROUP8\DLL\DEBUG\VC141.IDB
C:\USERS\LENOVO\DOWNLOADS\GROUP8\GROUP8\DLL\DEBUG\DLLMAIN.OBJ
